%YAML 1.1
%TAG !u! tag:unity3d.com,2011:
--- !u!29 &1
OcclusionCullingSettings:
  m_ObjectHideFlags: 0
  serializedVersion: 2
  m_OcclusionBakeSettings:
    smallestOccluder: 5
    smallestHole: 0.25
    backfaceThreshold: 100
  m_SceneGUID: 00000000000000000000000000000000
  m_OcclusionCullingData: {fileID: 0}
--- !u!104 &2
RenderSettings:
  m_ObjectHideFlags: 0
  serializedVersion: 9
  m_Fog: 0
  m_FogColor: {r: 0.5, g: 0.5, b: 0.5, a: 1}
  m_FogMode: 3
  m_FogDensity: 0.01
  m_LinearFogStart: 0
  m_LinearFogEnd: 300
  m_AmbientSkyColor: {r: 0.212, g: 0.227, b: 0.259, a: 1}
  m_AmbientEquatorColor: {r: 0.114, g: 0.125, b: 0.133, a: 1}
  m_AmbientGroundColor: {r: 0.047, g: 0.043, b: 0.035, a: 1}
  m_AmbientIntensity: 1
  m_AmbientMode: 3
  m_SubtractiveShadowColor: {r: 0.42, g: 0.478, b: 0.627, a: 1}
  m_SkyboxMaterial: {fileID: 0}
  m_HaloStrength: 0.5
  m_FlareStrength: 1
  m_FlareFadeSpeed: 3
  m_HaloTexture: {fileID: 0}
  m_SpotCookie: {fileID: 10001, guid: 0000000000000000e000000000000000, type: 0}
  m_DefaultReflectionMode: 0
  m_DefaultReflectionResolution: 128
  m_ReflectionBounces: 1
  m_ReflectionIntensity: 1
  m_CustomReflection: {fileID: 0}
  m_Sun: {fileID: 0}
  m_IndirectSpecularColor: {r: 0, g: 0, b: 0, a: 1}
  m_UseRadianceAmbientProbe: 0
--- !u!157 &3
LightmapSettings:
  m_ObjectHideFlags: 0
  serializedVersion: 11
  m_GIWorkflowMode: 1
  m_GISettings:
    serializedVersion: 2
    m_BounceScale: 1
    m_IndirectOutputScale: 1
    m_AlbedoBoost: 1
    m_TemporalCoherenceThreshold: 1
    m_EnvironmentLightingMode: 0
    m_EnableBakedLightmaps: 0
    m_EnableRealtimeLightmaps: 0
  m_LightmapEditorSettings:
    serializedVersion: 10
    m_Resolution: 2
    m_BakeResolution: 40
    m_AtlasSize: 1024
    m_AO: 0
    m_AOMaxDistance: 1
    m_CompAOExponent: 1
    m_CompAOExponentDirect: 0
    m_Padding: 2
    m_LightmapParameters: {fileID: 0}
    m_LightmapsBakeMode: 1
    m_TextureCompression: 1
    m_FinalGather: 0
    m_FinalGatherFiltering: 1
    m_FinalGatherRayCount: 256
    m_ReflectionCompression: 2
    m_MixedBakeMode: 2
    m_BakeBackend: 1
    m_PVRSampling: 1
    m_PVRDirectSampleCount: 32
    m_PVRSampleCount: 500
    m_PVRBounces: 2
    m_PVRFilterTypeDirect: 0
    m_PVRFilterTypeIndirect: 0
    m_PVRFilterTypeAO: 0
    m_PVRFilteringMode: 1
    m_PVRCulling: 1
    m_PVRFilteringGaussRadiusDirect: 1
    m_PVRFilteringGaussRadiusIndirect: 5
    m_PVRFilteringGaussRadiusAO: 2
    m_PVRFilteringAtrousPositionSigmaDirect: 0.5
    m_PVRFilteringAtrousPositionSigmaIndirect: 2
    m_PVRFilteringAtrousPositionSigmaAO: 1
    m_ShowResolutionOverlay: 1
  m_LightingDataAsset: {fileID: 0}
  m_UseShadowmask: 1
--- !u!196 &4
NavMeshSettings:
  serializedVersion: 2
  m_ObjectHideFlags: 0
  m_BuildSettings:
    serializedVersion: 2
    agentTypeID: 0
    agentRadius: 0.5
    agentHeight: 2
    agentSlope: 45
    agentClimb: 0.4
    ledgeDropHeight: 0
    maxJumpAcrossDistance: 0
    minRegionArea: 2
    manualCellSize: 0
    cellSize: 0.16666667
    manualTileSize: 0
    tileSize: 256
    accuratePlacement: 0
    debug:
      m_Flags: 0
  m_NavMeshData: {fileID: 0}
--- !u!1001 &100469885
Prefab:
  m_ObjectHideFlags: 0
  serializedVersion: 2
  m_Modification:
    m_TransformParent: {fileID: 0}
    m_Modifications:
    - target: {fileID: 114146849829100258, guid: 99648b42789a2d84c8e74480906e2fcf,
        type: 2}
      propertyPath: lines.Array.size
      value: 1
      objectReference: {fileID: 0}
    - target: {fileID: 224034663708362108, guid: 99648b42789a2d84c8e74480906e2fcf,
        type: 2}
      propertyPath: m_LocalPosition.x
      value: 0
      objectReference: {fileID: 0}
    - target: {fileID: 224034663708362108, guid: 99648b42789a2d84c8e74480906e2fcf,
        type: 2}
      propertyPath: m_LocalPosition.y
      value: 0
      objectReference: {fileID: 0}
    - target: {fileID: 224034663708362108, guid: 99648b42789a2d84c8e74480906e2fcf,
        type: 2}
      propertyPath: m_LocalPosition.z
      value: 0
      objectReference: {fileID: 0}
    - target: {fileID: 224034663708362108, guid: 99648b42789a2d84c8e74480906e2fcf,
        type: 2}
      propertyPath: m_LocalRotation.x
      value: -0
      objectReference: {fileID: 0}
    - target: {fileID: 224034663708362108, guid: 99648b42789a2d84c8e74480906e2fcf,
        type: 2}
      propertyPath: m_LocalRotation.y
      value: -0
      objectReference: {fileID: 0}
    - target: {fileID: 224034663708362108, guid: 99648b42789a2d84c8e74480906e2fcf,
        type: 2}
      propertyPath: m_LocalRotation.z
      value: -0
      objectReference: {fileID: 0}
    - target: {fileID: 224034663708362108, guid: 99648b42789a2d84c8e74480906e2fcf,
        type: 2}
      propertyPath: m_LocalRotation.w
      value: 1
      objectReference: {fileID: 0}
    - target: {fileID: 224034663708362108, guid: 99648b42789a2d84c8e74480906e2fcf,
        type: 2}
      propertyPath: m_RootOrder
      value: 2
      objectReference: {fileID: 0}
    - target: {fileID: 224034663708362108, guid: 99648b42789a2d84c8e74480906e2fcf,
        type: 2}
      propertyPath: m_AnchoredPosition.x
      value: 519
      objectReference: {fileID: 0}
    - target: {fileID: 224034663708362108, guid: 99648b42789a2d84c8e74480906e2fcf,
        type: 2}
      propertyPath: m_AnchoredPosition.y
      value: 304
      objectReference: {fileID: 0}
    - target: {fileID: 224034663708362108, guid: 99648b42789a2d84c8e74480906e2fcf,
        type: 2}
      propertyPath: m_SizeDelta.x
      value: 100
      objectReference: {fileID: 0}
    - target: {fileID: 224034663708362108, guid: 99648b42789a2d84c8e74480906e2fcf,
        type: 2}
      propertyPath: m_SizeDelta.y
      value: 100
      objectReference: {fileID: 0}
    - target: {fileID: 224034663708362108, guid: 99648b42789a2d84c8e74480906e2fcf,
        type: 2}
      propertyPath: m_AnchorMin.x
      value: 0.5
      objectReference: {fileID: 0}
    - target: {fileID: 224034663708362108, guid: 99648b42789a2d84c8e74480906e2fcf,
        type: 2}
      propertyPath: m_AnchorMin.y
      value: 0.5
      objectReference: {fileID: 0}
    - target: {fileID: 224034663708362108, guid: 99648b42789a2d84c8e74480906e2fcf,
        type: 2}
      propertyPath: m_AnchorMax.x
      value: 0.5
      objectReference: {fileID: 0}
    - target: {fileID: 224034663708362108, guid: 99648b42789a2d84c8e74480906e2fcf,
        type: 2}
      propertyPath: m_AnchorMax.y
      value: 0.5
      objectReference: {fileID: 0}
    - target: {fileID: 224034663708362108, guid: 99648b42789a2d84c8e74480906e2fcf,
        type: 2}
      propertyPath: m_Pivot.x
      value: 0.5
      objectReference: {fileID: 0}
    - target: {fileID: 224034663708362108, guid: 99648b42789a2d84c8e74480906e2fcf,
        type: 2}
      propertyPath: m_Pivot.y
      value: 0.5
      objectReference: {fileID: 0}
    - target: {fileID: 1881837855909810, guid: 99648b42789a2d84c8e74480906e2fcf, type: 2}
      propertyPath: m_Name
      value: MainMenu
      objectReference: {fileID: 0}
    - target: {fileID: 114374874437310406, guid: 99648b42789a2d84c8e74480906e2fcf,
        type: 2}
      propertyPath: m_Text
      value: Main Menu
      objectReference: {fileID: 0}
    - target: {fileID: 114511973414339084, guid: 99648b42789a2d84c8e74480906e2fcf,
        type: 2}
      propertyPath: m_OnClick.m_PersistentCalls.m_Calls.Array.data[0].m_MethodName
      value: LoadScene
      objectReference: {fileID: 0}
    - target: {fileID: 114511973414339084, guid: 99648b42789a2d84c8e74480906e2fcf,
        type: 2}
      propertyPath: m_OnClick.m_PersistentCalls.m_Calls.Array.data[0].m_Mode
      value: 3
      objectReference: {fileID: 0}
    - target: {fileID: 114966723616613000, guid: 99648b42789a2d84c8e74480906e2fcf,
        type: 2}
      propertyPath: startDirection
      value: 2
      objectReference: {fileID: 0}
    - target: {fileID: 114146849829100258, guid: 99648b42789a2d84c8e74480906e2fcf,
        type: 2}
      propertyPath: lines.Array.data[2]
      value: 
      objectReference: {fileID: 0}
    - target: {fileID: 114146849829100258, guid: 99648b42789a2d84c8e74480906e2fcf,
        type: 2}
      propertyPath: startDirection
      value: 0
      objectReference: {fileID: 0}
    - target: {fileID: 114300001180554308, guid: 99648b42789a2d84c8e74480906e2fcf,
        type: 2}
      propertyPath: lines.Array.data[0]
      value: -*-*-*-*
      objectReference: {fileID: 0}
    - target: {fileID: 114300001180554308, guid: 99648b42789a2d84c8e74480906e2fcf,
        type: 2}
      propertyPath: startDirection
      value: 1
      objectReference: {fileID: 0}
    - target: {fileID: 114146849829100258, guid: 99648b42789a2d84c8e74480906e2fcf,
        type: 2}
      propertyPath: lines.Array.data[1]
      value: 
      objectReference: {fileID: 0}
    - target: {fileID: 114146849829100258, guid: 99648b42789a2d84c8e74480906e2fcf,
        type: 2}
      propertyPath: lines.Array.data[0]
      value: '*-*-*-*-*'
      objectReference: {fileID: 0}
    - target: {fileID: 114146849829100258, guid: 99648b42789a2d84c8e74480906e2fcf,
        type: 2}
      propertyPath: goTime
      value: 10
      objectReference: {fileID: 0}
    - target: {fileID: 114610146551838340, guid: 99648b42789a2d84c8e74480906e2fcf,
        type: 2}
      propertyPath: startDirection
      value: 2
      objectReference: {fileID: 0}
    - target: {fileID: 114146849829100258, guid: 99648b42789a2d84c8e74480906e2fcf,
        type: 2}
      propertyPath: m_Enabled
      value: 1
      objectReference: {fileID: 0}
    - target: {fileID: 114610146551838340, guid: 99648b42789a2d84c8e74480906e2fcf,
        type: 2}
      propertyPath: m_Enabled
      value: 1
      objectReference: {fileID: 0}
    - target: {fileID: 114966723616613000, guid: 99648b42789a2d84c8e74480906e2fcf,
        type: 2}
      propertyPath: enemy
      value: 
      objectReference: {fileID: 1137563103079262, guid: 13747b2ef0d38d943a7bdf72700f98e5,
        type: 2}
    - target: {fileID: 114966723616613000, guid: 99648b42789a2d84c8e74480906e2fcf,
        type: 2}
      propertyPath: lines.Array.data[0]
      value: '----*****'
      objectReference: {fileID: 0}
    - target: {fileID: 114966723616613000, guid: 99648b42789a2d84c8e74480906e2fcf,
        type: 2}
      propertyPath: lines.Array.data[1]
      value: -*****
      objectReference: {fileID: 0}
    - target: {fileID: 114610146551838340, guid: 99648b42789a2d84c8e74480906e2fcf,
        type: 2}
      propertyPath: goTime
      value: 30
      objectReference: {fileID: 0}
    - target: {fileID: 114610146551838340, guid: 99648b42789a2d84c8e74480906e2fcf,
        type: 2}
      propertyPath: lines.Array.data[1]
      value: 
      objectReference: {fileID: 0}
    m_RemovedComponents: []
  m_ParentPrefab: {fileID: 100100000, guid: 99648b42789a2d84c8e74480906e2fcf, type: 2}
  m_IsPrefabParent: 0
--- !u!1001 &797512737
Prefab:
  m_ObjectHideFlags: 0
  serializedVersion: 2
  m_Modification:
    m_TransformParent: {fileID: 0}
    m_Modifications:
    - target: {fileID: 4489471429311772, guid: 8c19a54d4f487b64e96a7f32f4dad5b8, type: 2}
      propertyPath: m_LocalPosition.x
      value: 0
      objectReference: {fileID: 0}
    - target: {fileID: 4489471429311772, guid: 8c19a54d4f487b64e96a7f32f4dad5b8, type: 2}
      propertyPath: m_LocalPosition.y
      value: 0
      objectReference: {fileID: 0}
    - target: {fileID: 4489471429311772, guid: 8c19a54d4f487b64e96a7f32f4dad5b8, type: 2}
      propertyPath: m_LocalPosition.z
      value: 0
      objectReference: {fileID: 0}
    - target: {fileID: 4489471429311772, guid: 8c19a54d4f487b64e96a7f32f4dad5b8, type: 2}
      propertyPath: m_LocalRotation.x
      value: -0
      objectReference: {fileID: 0}
    - target: {fileID: 4489471429311772, guid: 8c19a54d4f487b64e96a7f32f4dad5b8, type: 2}
      propertyPath: m_LocalRotation.y
      value: -0
      objectReference: {fileID: 0}
    - target: {fileID: 4489471429311772, guid: 8c19a54d4f487b64e96a7f32f4dad5b8, type: 2}
      propertyPath: m_LocalRotation.z
      value: -0
      objectReference: {fileID: 0}
    - target: {fileID: 4489471429311772, guid: 8c19a54d4f487b64e96a7f32f4dad5b8, type: 2}
      propertyPath: m_LocalRotation.w
      value: 1
      objectReference: {fileID: 0}
    - target: {fileID: 4489471429311772, guid: 8c19a54d4f487b64e96a7f32f4dad5b8, type: 2}
      propertyPath: m_RootOrder
      value: 1
      objectReference: {fileID: 0}
    m_RemovedComponents: []
  m_ParentPrefab: {fileID: 100100000, guid: 8c19a54d4f487b64e96a7f32f4dad5b8, type: 2}
  m_IsPrefabParent: 0
--- !u!1001 &924962806
Prefab:
  m_ObjectHideFlags: 0
  serializedVersion: 2
  m_Modification:
    m_TransformParent: {fileID: 0}
    m_Modifications:
    - target: {fileID: 4597846609282182, guid: c25665536ebf5f44097cbea31896904d, type: 2}
      propertyPath: m_LocalPosition.x
      value: -0.08
      objectReference: {fileID: 0}
    - target: {fileID: 4597846609282182, guid: c25665536ebf5f44097cbea31896904d, type: 2}
      propertyPath: m_LocalPosition.y
      value: -2.56
      objectReference: {fileID: 0}
    - target: {fileID: 4597846609282182, guid: c25665536ebf5f44097cbea31896904d, type: 2}
      propertyPath: m_LocalPosition.z
      value: 0
      objectReference: {fileID: 0}
    - target: {fileID: 4597846609282182, guid: c25665536ebf5f44097cbea31896904d, type: 2}
      propertyPath: m_LocalRotation.x
      value: 0
      objectReference: {fileID: 0}
    - target: {fileID: 4597846609282182, guid: c25665536ebf5f44097cbea31896904d, type: 2}
      propertyPath: m_LocalRotation.y
      value: 0
      objectReference: {fileID: 0}
    - target: {fileID: 4597846609282182, guid: c25665536ebf5f44097cbea31896904d, type: 2}
      propertyPath: m_LocalRotation.z
      value: 0
      objectReference: {fileID: 0}
    - target: {fileID: 4597846609282182, guid: c25665536ebf5f44097cbea31896904d, type: 2}
      propertyPath: m_LocalRotation.w
      value: 1
      objectReference: {fileID: 0}
    - target: {fileID: 4597846609282182, guid: c25665536ebf5f44097cbea31896904d, type: 2}
      propertyPath: m_RootOrder
      value: 3
      objectReference: {fileID: 0}
    - target: {fileID: 114470754437632924, guid: c25665536ebf5f44097cbea31896904d,
        type: 2}
      propertyPath: maxSpeed
      value: 4
      objectReference: {fileID: 0}
    - target: {fileID: 114470754437632924, guid: c25665536ebf5f44097cbea31896904d,
        type: 2}
      propertyPath: cooldown
      value: 0.3
      objectReference: {fileID: 0}
    m_RemovedComponents: []
  m_ParentPrefab: {fileID: 100100000, guid: c25665536ebf5f44097cbea31896904d, type: 2}
  m_IsPrefabParent: 0
--- !u!1 &1021366674
GameObject:
  m_ObjectHideFlags: 0
  m_PrefabParentObject: {fileID: 0}
  m_PrefabInternal: {fileID: 0}
  serializedVersion: 5
  m_Component:
  - component: {fileID: 1021366678}
  - component: {fileID: 1021366677}
  - component: {fileID: 1021366676}
  - component: {fileID: 1021366675}
  m_Layer: 0
  m_Name: Main Camera
  m_TagString: MainCamera
  m_Icon: {fileID: 0}
  m_NavMeshLayer: 0
  m_StaticEditorFlags: 0
  m_IsActive: 1
--- !u!81 &1021366675
AudioListener:
  m_ObjectHideFlags: 0
  m_PrefabParentObject: {fileID: 0}
  m_PrefabInternal: {fileID: 0}
  m_GameObject: {fileID: 1021366674}
  m_Enabled: 1
--- !u!124 &1021366676
Behaviour:
  m_ObjectHideFlags: 0
  m_PrefabParentObject: {fileID: 0}
  m_PrefabInternal: {fileID: 0}
  m_GameObject: {fileID: 1021366674}
  m_Enabled: 1
--- !u!20 &1021366677
Camera:
  m_ObjectHideFlags: 0
  m_PrefabParentObject: {fileID: 0}
  m_PrefabInternal: {fileID: 0}
  m_GameObject: {fileID: 1021366674}
  m_Enabled: 1
  serializedVersion: 2
  m_ClearFlags: 1
  m_BackGroundColor: {r: 0.19215687, g: 0.3019608, b: 0.4745098, a: 0}
  m_NormalizedViewPortRect:
    serializedVersion: 2
    x: 0
    y: 0
    width: 1
    height: 1
  near clip plane: 0.3
  far clip plane: 1000
  field of view: 60
  orthographic: 1
  orthographic size: 5
  m_Depth: -1
  m_CullingMask:
    serializedVersion: 2
    m_Bits: 4294967295
  m_RenderingPath: -1
  m_TargetTexture: {fileID: 0}
  m_TargetDisplay: 0
  m_TargetEye: 3
  m_HDR: 1
  m_AllowMSAA: 1
  m_AllowDynamicResolution: 0
  m_ForceIntoRT: 0
  m_OcclusionCulling: 1
  m_StereoConvergence: 10
  m_StereoSeparation: 0.022
--- !u!4 &1021366678
Transform:
  m_ObjectHideFlags: 0
  m_PrefabParentObject: {fileID: 0}
  m_PrefabInternal: {fileID: 0}
  m_GameObject: {fileID: 1021366674}
  m_LocalRotation: {x: 0, y: 0, z: 0, w: 1}
  m_LocalPosition: {x: 0, y: 0, z: -10}
  m_LocalScale: {x: 1, y: 1, z: 1}
  m_Children: []
  m_Father: {fileID: 0}
  m_RootOrder: 0
  m_LocalEulerAnglesHint: {x: 0, y: 0, z: 0}
--- !u!1 &1689138274 stripped
GameObject:
  m_PrefabParentObject: {fileID: 1561626318607262, guid: 99648b42789a2d84c8e74480906e2fcf,
    type: 2}
  m_PrefabInternal: {fileID: 100469885}
--- !u!114 &1689138275
MonoBehaviour:
  m_ObjectHideFlags: 0
  m_PrefabParentObject: {fileID: 0}
  m_PrefabInternal: {fileID: 0}
  m_GameObject: {fileID: 1689138274}
  m_Enabled: 1
  m_EditorHideFlags: 0
  m_Script: {fileID: 11500000, guid: fa4237c7276eac54baa69f0a7e104781, type: 3}
  m_Name: 
  m_EditorClassIdentifier: 
  lines:
  - 
  - --**--**--
  goTime: 30
  startDirection: 2
  enemy: {fileID: 1569568711127442, guid: b196c041eee7c7342936139f869568a6, type: 2}
--- !u!114 &1689138281
MonoBehaviour:
  m_ObjectHideFlags: 0
  m_PrefabParentObject: {fileID: 0}
  m_PrefabInternal: {fileID: 0}
  m_GameObject: {fileID: 1689138274}
  m_Enabled: 1
  m_EditorHideFlags: 0
  m_Script: {fileID: 11500000, guid: fa4237c7276eac54baa69f0a7e104781, type: 3}
  m_Name: 
  m_EditorClassIdentifier: 
  lines:
  - -********
  goTime: 17
  startDirection: 3
  enemy: {fileID: 1948644667776660, guid: c12aa384ed475f746a18b453f97486d8, type: 2}
